"X","x1","x2","xvar","yvar","siz","col"
1,1,-8,1,0,0.686174032976851,5
2,2,-7,2,-5,1.07129196426831,1
3,3,-6,3,-6,0.835032279137522,5
4,4,-7,4,-2,0.88244225201197,1
5,5,-6,NA,NA,NA,NA
6,6,-5,6,-3,1.11970856762491,1
7,7,-6,NA,NA,NA,NA
8,8,-5,8,-4,1.25133079127409,5
9,9,-4,9,-3,1.1038319428917,5
10,10,-5,10,-4,1.0379708041437,1
11,11,-4,11,-1,0.750147935468704,2
12,12,-3,12,0,1.4898761336226,1
13,13,-4,13,1,0.505815115058795,5
14,14,-3,14,1,1.06729464349337,5
15,15,-2,NA,NA,NA,NA
16,16,-3,16,-3,1.24701654538512,4
17,17,-2,17,-2,1.32376406923868,1
18,18,-1,18,1,0.631202459800988,4
19,19,-0.5,NA,NA,NA,NA
20,20,-0.1,20,0,1.28291778848507,1
